[ { 
    "name": "Maya", "value": 40, 
    "children":[
            { 
        "name": "Chol-tzeltal", "value": 30, 
         "children":[
                  { 
              "name": "tsotsil", "value": 20, 
              "children":[
                      {"name": "tsotsil del norte alto", "value": 10},
{"name": "tsotsil del este bajo", "value": 10}
                      ]
                    },
{ 
              "name": "tseltal", "value": 20, 
              "children":[
                      {"name": "tseltal del sur", "value": 10},
{"name": "tseltal del norte", "value": 10},
{"name": "tseltal del occidente", "value": 10},
{"name": "tseltal del oriente", "value": 10}
                      ]
                    },
{ 
              "name": "ch'ol", "value": 20, 
              "children":[
                      {"name": "ch'ol del sureste", "value": 10},
{"name": "ch'ol del noroeste", "value": 10}
                      ]
                    },
{ 
              "name": "chontal de Tabasco", "value": 20, 
              "children":[
                      {"name": "chontal de Tabasco del norte", "value": 10},
{"name": "chontal de Tabasco del este", "value": 10}
                      ]
                    }
                  ]
                },
{ 
        "name": "Huasteca", "value": 30, 
         "children":[
                  { 
              "name": "huasteco", "value": 20, 
              "children":[
                      {"name": "huasteco del occidente", "value": 10}
                      ]
                    }
                  ]
                },
{ 
        "name": "Kanjobal-chuj", "value": 30, 
         "children":[
                  { 
              "name": "q'anjob'al", "value": 20, 
              "children":[
                      {"name": "q'anjob'al", "value": 10}
                      ]
                    },
{ 
              "name": "tojolabal", "value": 20, 
              "children":[
                      {"name": "tojolabal", "value": 10}
                      ]
                    },
{ 
              "name": "chuj", "value": 20, 
              "children":[
                      {"name": "chuj", "value": 10}
                      ]
                    }
                  ]
                },
{ 
        "name": "Quiche-mam", "value": 30, 
         "children":[
                  { 
              "name": "mam", "value": 20, 
              "children":[
                      {"name": "mam del Soconusco", "value": 10},
{"name": "mam de la Sierra", "value": 10},
{"name": "mam de la frontera", "value": 10}
                      ]
                    }
                  ]
                },
{ 
        "name": "Yucateca", "value": 30, 
         "children":[
                  { 
              "name": "maya", "value": 20, 
              "children":[
                      {"name": "maya", "value": 10}
                      ]
                    },
{ 
              "name": "lacandon", "value": 20, 
              "children":[
                      {"name": "lacandon", "value": 10}
                      ]
                    }
                  ]
                }
            ]
          },
{ 
    "name": "Mixe-zoque", "value": 40, 
    "children":[
            { 
        "name": "Zoque", "value": 30, 
         "children":[
                  { 
              "name": "zoque", "value": 20, 
              "children":[
                      {"name": "zoque del sur", "value": 10},
{"name": "zoque del centro", "value": 10}
                      ]
                    },
{ 
              "name": "popoluca de la Sierra", "value": 20, 
              "children":[
                      {"name": "popoluca de la Sierra", "value": 10}
                      ]
                    }
                  ]
                }
            ]
          },
{ 
    "name": "Yuto-nahua", "value": 40, 
    "children":[
            { 
        "name": "Cahita", "value": 30, 
         "children":[
                  { 
              "name": "mayo", "value": 20, 
              "children":[
                      {"name": "mayo", "value": 10}
                      ]
                    }
                  ]
                },
{ 
        "name": "Cora-huichol", "value": 30, 
         "children":[
                  { 
              "name": "cora", "value": 20, 
              "children":[
                      {"name": "cora tereseño", "value": 10},
{"name": "cora meseño", "value": 10},
{"name": "cora de Dolores", "value": 10},
{"name": "cora meseño, cora tereseño", "value": 10},
{"name": "cora de Rosarito", "value": 10},
{"name": "cora corapeño", "value": 10},
{"name": "cora presideño", "value": 10}
                      ]
                    },
{ 
              "name": "huichol", "value": 20, 
              "children":[
                      {"name": "huichol del sur", "value": 10},
{"name": "huichol del este", "value": 10},
{"name": "huichol del norte", "value": 10}
                      ]
                    }
                  ]
                },
{ 
        "name": "Nahua-pochuteco", "value": 30, 
         "children":[
                  { 
              "name": "nahuatl", "value": 20, 
              "children":[
                      {"name": "mexicano del noroeste", "value": 10},
{"name": "mexicano de Guerrero", "value": 10},
{"name": "nahuatl del noroeste central", "value": 10},
{"name": "mexicano de occidente", "value": 10},
{"name": "mexicano del centro alto", "value": 10},
{"name": "mexicano del centro", "value": 10},
{"name": "mexicano del centro bajo", "value": 10},
{"name": "mexicano de Temixco", "value": 10},
{"name": "mexicano alto de occidente", "value": 10},
{"name": "nahuatl del centro de Puebla", "value": 10},
{"name": "nahuatl de la Sierra negra, norte", "value": 10},
{"name": "nahuatl de la Sierra, noreste de Puebla", "value": 10},
{"name": "nahuatl de la Sierra negra, sur", "value": 10},
{"name": "nahuatl de la Huasteca potosina", "value": 10},
{"name": "mexicano del oriente central", "value": 10},
{"name": "nahuatl central de Veracruz", "value": 10},
{"name": "nahuatl de la Huasteca veracruzana", "value": 10},
{"name": "nahuatl del Istmo", "value": 10},
{"name": "nahuatl del Istmo bajo", "value": 10},
{"name": "nahuatl de Oaxaca", "value": 10}
                      ]
                    }
                  ]
                },
{ 
        "name": "Pima", "value": 30, 
         "children":[
                  { 
              "name": "tepehuano del norte", "value": 20, 
              "children":[
                      {"name": "tepehuano del norte", "value": 10}
                      ]
                    },
{ 
              "name": "pima", "value": 20, 
              "children":[
                      {"name": "pima del norte", "value": 10},
{"name": "pima del sur", "value": 10},
{"name": "pima del este", "value": 10}
                      ]
                    },
{ 
              "name": "tepehuano del sur", "value": 20, 
              "children":[
                      {"name": "tepehuano del sur central", "value": 10},
{"name": "tepehuano del sur bajo", "value": 10},
{"name": "tepehuano del sur alto", "value": 10}
                      ]
                    }
                  ]
                },
{ 
        "name": "Tarahumara", "value": 30, 
         "children":[
                  { 
              "name": "tarahumara", "value": 20, 
              "children":[
                      {"name": "tarahumara del norte", "value": 10},
{"name": "tarahumara del centro", "value": 10},
{"name": "tarahumara del sur", "value": 10}
                      ]
                    }
                  ]
                }
            ]
          },
{ 
    "name": "Oto-mangue", "value": 40, 
    "children":[
            { 
        "name": "Amuzgo-mixteca", "value": 30, 
         "children":[
                  { 
              "name": "mixteco", "value": 20, 
              "children":[
                      {"name": "mixteco de Atlamajalcingo", "value": 10},
{"name": "mixteco de Guerrero del este medio", "value": 10},
{"name": "mixteco de San Luis Acatlan", "value": 10},
{"name": "mixteco bajo de Valles", "value": 10},
{"name": "mixteco del noreste", "value": 10},
{"name": "mixteco de Cañada bajo", "value": 10},
{"name": "mixteco de Villa de Tututepec", "value": 10},
{"name": "mixteco de la frontera Puebla-Oaxaca", "value": 10},
{"name": "mixteco de Zapotitlan", "value": 10}
                      ]
                    },
{ 
              "name": "cuicateco", "value": 20, 
              "children":[
                      {"name": "cuicateco del centro", "value": 10}
                      ]
                    }
                  ]
                },
{ 
        "name": "Chinanteca", "value": 30, 
         "children":[
                  { 
              "name": "chinanteco", "value": 20, 
              "children":[
                      {"name": "chinanteco del oeste central bajo", "value": 10},
{"name": "chinanteco de la Sierra", "value": 10},
{"name": "chinanteco central", "value": 10},
{"name": "chinanteco del sureste medio", "value": 10}
                      ]
                    }
                  ]
                },
{ 
        "name": "Otopame", "value": 30, 
         "children":[
                  { 
              "name": "otomi", "value": 20, 
              "children":[
                      {"name": "otomi del noroeste", "value": 10},
{"name": "otomi de la Sierra", "value": 10},
{"name": "otomi del Valle del Mezquital", "value": 10},
{"name": "otomi del centro", "value": 10},
{"name": "otomi del oeste", "value": 10}
                      ]
                    },
{ 
              "name": "chichimeco jonaz", "value": 20, 
              "children":[
                      {"name": "chichimeco jonaz", "value": 10}
                      ]
                    },
{ 
              "name": "mazahua", "value": 20, 
              "children":[
                      {"name": "mazahua de oriente", "value": 10},
{"name": "mazahua de occidente", "value": 10},
{"name": "mazahua de oriente/mazahua de occidente", "value": 10}
                      ]
                    },
{ 
              "name": "tlahuica", "value": 20, 
              "children":[
                      {"name": "tlahuica", "value": 10}
                      ]
                    },
{ 
              "name": "matlatzinca", "value": 20, 
              "children":[
                      {"name": "matlatzinca", "value": 10}
                      ]
                    },
{ 
              "name": "pame", "value": 20, 
              "children":[
                      {"name": "pame del norte", "value": 10}
                      ]
                    }
                  ]
                },
{ 
        "name": "Popoloca", "value": 30, 
         "children":[
                  { 
              "name": "mazateco", "value": 20, 
              "children":[
                      {"name": "mazateco del suroeste", "value": 10},
{"name": "mazateco del oeste", "value": 10}
                      ]
                    },
{ 
              "name": "chocholteco", "value": 20, 
              "children":[
                      {"name": "chocholteco del este", "value": 10}
                      ]
                    },
{ 
              "name": "ixcateco", "value": 20, 
              "children":[
                      {"name": "ixcateco", "value": 10}
                      ]
                    },
{ 
              "name": "popoloca", "value": 20, 
              "children":[
                      {"name": "popoloca de oriente", "value": 10},
{"name": "popoloca del norte", "value": 10}
                      ]
                    }
                  ]
                },
{ 
        "name": "Tlapaneco-sutiaba", "value": 30, 
         "children":[
                  { 
              "name": "tlapaneco", "value": 20, 
              "children":[
                      {"name": "tlapaneco central bajo", "value": 10},
{"name": "tlapaneco del centro", "value": 10},
{"name": "tlapaneco del suroeste", "value": 10},
{"name": "tlapaneco del este", "value": 10}
                      ]
                    }
                  ]
                },
{ 
        "name": "Zapoteca", "value": 30, 
         "children":[
                  { 
              "name": "zapoteco", "value": 20, 
              "children":[
                      {"name": "zapoteco de la planicie costera", "value": 10},
{"name": "zapoteco de Valles, del noroeste medio", "value": 10},
{"name": "zapoteco de Valles, del noreste", "value": 10},
{"name": "zapoteco de la montaña del Istmo, bajo", "value": 10},
{"name": "zapoteco de la costa oeste", "value": 10},
{"name": "zapoteco de Valles, del norte central", "value": 10}
                      ]
                    },
{ 
              "name": "chatino", "value": 20, 
              "children":[
                      {"name": "chatino occidental bajo", "value": 10}
                      ]
                    }
                  ]
                }
            ]
          } ]
