"TIPO_v","SUP_p","SUP_km2"
"ADVC",0.611848747717872,5878.19
"Estatal",4.47085641483628,42952.68
"Federal",94.686096764322,909673.95
"Municipal",0.162654076188216,1562.66
"Privado",0.0061057991560549,58.66
"Propiedad social",0.0624381977795958,599.86
