"anio","km2_cont_a","km2_mar_a","km2_ins_a","cumcont","cummar","cumins"
1917,15,0,0,15,0,0
1935,396,0,0,411,0,0
1936,1307,0,0,1718,0,0
1937,5079,1,0,6797,1,0
1938,2476,0,0,9273,1,0
1939,4350,0,0,13623,1,0
1940,377,0,0,14000,1,0
1941,1396,0,0,15396,1,0
1942,5,0,0,15401,1,0
1947,734,0,0,16135,1,0
1949,41090,0,0,57225,1,0
1959,64,0,0,57289,1,0
1962,51,0,0,57340,1,0
1964,3,0,0,57343,1,0
1972,370,611,14,57713,612,14
1973,2,37,0,57715,649,14
1975,36,0,0,57751,649,14
1977,627,0,0,58378,649,14
1978,3333,60,3596,61711,709,3610
1979,5533,0,0,67244,709,3610
1980,26790,9,1,94034,718,3611
1981,715,0,0,94749,718,3611
1982,1219,0,0,95968,718,3611
1985,1374,0,0,97342,718,3611
1986,3713,1544,12,101055,2262,3623
1987,1393,0,0,102448,2262,3623
1988,21874,3879,84,124322,6141,3707
1989,7192,0,0,131514,6141,3707
1990,1234,0,0,132748,6141,3707
1991,60,0,0,132808,6141,3707
1992,4150,677,0,136958,6818,3707
1993,12252,5385,153,149210,12203,3860
1994,11863,7740,177,161073,19943,4037
1995,2838,380,1,163911,20323,4038
1996,934,3494,221,164845,23817,4259
1997,4763,0,0,169608,23817,4259
1998,6622,538,3,176230,24355,4262
1999,3242,1976,5,179472,26331,4267
2000,7740,6484,236,187212,32815,4503
2001,267,0,0,187479,32815,4503
2002,918,316,4,188397,33131,4507
2003,1887,0,0,190284,33131,4507
2004,2972,1,0,193256,33132,4507
2005,5833,7335,465,199089,40467,4972
2006,4600,1,0,203689,40468,4972
2007,5512,4342,7,209201,44810,4979
2008,2489,1153,10,211690,45963,4989
2009,10552,3193,0,222242,49156,4989
2010,2157,212,43,224399,49368,5032
2011,2355,1,207,226754,49369,5239
2012,2695,329,57,229449,49698,5296
2013,9504,15,0,238953,49713,5296
2014,964,0,0,239917,49713,5296
2015,326,0,0,240243,49713,5296
2016,3979,504953,928,244222,554666,6224
2017,1335,148149,152,245557,702815,6376
2018,2135,0,0,247692,702815,6376
2019,569,0,0,248261,702815,6376
2020,44,0,0,248305,702815,6376
2021,414,0,0,248719,702815,6376
